3.112097030639648665e+02
2.931328739166259822e+01
1.857812221527099439e+01
1.654629165649414091e+01
1.535389542579650879e+01
1.437693964004516545e+01
1.351139697074890123e+01
1.280740933418273997e+01
1.208201480865478494e+01
1.153649831771850565e+01
1.095288612365722614e+01
1.058083910942077566e+01
1.027755432128906321e+01
9.957306041717529865e+00
9.632964677810669230e+00
9.331047134399414134e+00
9.261518497467040589e+00
8.997310929298400595e+00
8.929835743904114054e+00
8.722777404785155397e+00
8.655100584030151367e+00
8.572626023292540864e+00
8.554403128623961905e+00
8.391224656105041646e+00
8.318270797729491406e+00
8.213997378349304768e+00
8.333762211799621511e+00
8.237233490943909331e+00
7.872088327407836594e+00
7.753940649032593058e+00
7.807599472999572576e+00
7.709117808341980016e+00
7.576966595649719416e+00
7.496363921165466238e+00
7.484656386375426962e+00
7.427708492279053054e+00
7.369948792457580389e+00
7.317684750556946227e+00
7.245491189956664968e+00
7.280306529998779475e+00
7.227913217544555735e+00
7.214272875785827210e+00
7.181041698455810973e+00
7.210260324478149130e+00
7.095832595825195099e+00
7.127042636871338210e+00
7.130742611885071192e+00
7.124144988059997630e+00
7.095268788337707910e+00
7.058107995986938832e+00
