3.779181484985351744e+02
4.790924368281599731e+11
9.048898361206055085e+01
5.777315792083740575e+01
1.751652132034301701e+01
1.627958166122436623e+01
1.405709293365478452e+01
1.344327617645263651e+01
1.300546024322509808e+01
1.260197828292846722e+01
1.141662578582763743e+01
1.268656286239624009e+01
1.105702365875244197e+01
1.048689517974853480e+01
1.139363363265991147e+01
9.799193439483643076e+00
9.877139453887940235e+00
9.900345001220703267e+00
9.351707916259766051e+00
9.358080759048462482e+00
9.959235687255858949e+00
9.197379207611083629e+00
8.951617946624756073e+00
9.028437290191650533e+00
9.170017900466918448e+00
9.020001440048217134e+00
8.706460390090942525e+00
9.268551654815674112e+00
9.038308925628662394e+00
9.077273759841919087e+00
8.563182697296142010e+00
8.437653865814208842e+00
9.120630464553833860e+00
8.539221715927123313e+00
8.408095808029175444e+00
8.291864013671874645e+00
8.288769178390502645e+00
8.325586042404175657e+00
8.457576942443846946e+00
8.359973068237303906e+00
8.190195789337158416e+00
8.559568080902099751e+00
8.316688861846923686e+00
8.248676185607910938e+00
8.112460231781005504e+00
8.236842765808106037e+00
8.035070257186889719e+00
8.219683685302733522e+00
8.023493223190307333e+00
8.003351697921752717e+00
